Tidymodels Computing Supplement - 2 The Whole Game
…
When run in the training set:

time_ratios(delivery_train)

# A tibble: 27 × 2
   term    estimate
   <chr>      <dbl>
 1 item_01     1.07
 2 item_02     1.01
 3 item_03     1.01
 4 item_04     1.00
 5 item_05     1.00
 6 item_06     1.02
 7 item_07     1.02
 8 item_08     1.01
 9 item_09     1.02
10 item_10     1.08
# ℹ 17 more rows
…
We are using random numbers again, so let’s reset the seed3.

set.seed(624)
resampled_data <- 
  delivery_train %>% 
  select(time_to_delivery, starts_with("item")) %>% 
  # This takes a while to compute. The materials use 5000 bootstraps
  # but a smaller number is used here for demonstration.
  bootstraps(times = 1001) 

resampled_data

# Bootstrap sampling 
# A tibble: 1,001 × 2
   splits              id           
   <list>              <chr>        
 1 <split [6004/2227]> Bootstrap0001
 2 <split [6004/2197]> Bootstrap0002
 3 <split [6004/2156]> Bootstrap0003
 4 <split [6004/2210]> Bootstrap0004
 5 <split [6004/2208]> Bootstrap0005
 6 <split [6004/2227]> Bootstrap0006
 7 <split [6004/2202]> Bootstrap0007
 8 <split [6004/2204]> Bootstrap0008
 9 <split [6004/2151]> Bootstrap0009
10 <split [6004/2229]> Bootstrap0010
# ℹ 991 more rows

The splits column contains the information on each bootstrap sample. To get a specific bootstrap sample, we can use the analysis(split_object) function on each element of the splits column. purrr::map() takes each split, extracts the bootstrap sample, then computes all of the ratios4.

resampled_ratios <- 
  resampled_data %>% 
  mutate(stats = map(splits, ~ time_ratios(analysis(.x))))

resampled_ratios

# Bootstrap sampling 
# A tibble: 1,001 × 3
   splits              id            stats            
   <list>              <chr>         <list>           
 1 <split [6004/2227]> Bootstrap0001 <tibble [27 × 2]>
 2 <split [6004/2197]> Bootstrap0002 <tibble [27 × 2]>
 3 <split [6004/2156]> Bootstrap0003 <tibble [27 × 2]>
 4 <split [6004/2210]> Bootstrap0004 <tibble [27 × 2]>
 5 <split [6004/2208]> Bootstrap0005 <tibble [27 × 2]>
 6 <split [6004/2227]> Bootstrap0006 <tibble [27 × 2]>
 7 <split [6004/2202]> Bootstrap0007 <tibble [27 × 2]>
 8 <split [6004/2204]> Bootstrap0008 <tibble [27 × 2]>
 9 <split [6004/2151]> Bootstrap0009 <tibble [27 × 2]>
10 <split [6004/2229]> Bootstrap0010 <tibble [27 × 2]>
# ℹ 991 more rows

# An example: 
resampled_ratios$stats[[1]]

# A tibble: 27 × 2
   term    estimate
   <chr>      <dbl>
 1 item_01     1.07
 2 item_02     1.02
 3 item_03     1.01
 4 item_04     1.01
 5 item_05     1.02
 6 item_06     1.01
 7 item_07     1.03
 8 item_08     1.02
 9 item_09     1.03
10 item_10     1.08
# ℹ 17 more rows

rsample::int_pctl() can consume these results and produce an interval for each item column5.

resampled_intervals <- 
  resampled_ratios %>% 
  int_pctl(stats, alpha = 0.1) 

resampled_intervals

# A tibble: 27 × 6
   term    .lower .estimate .upper .alpha .method   
   <chr>    <dbl>     <dbl>  <dbl>  <dbl> <chr>     
 1 item_01  1.05       1.07   1.10    0.1 percentile
 2 item_02  0.995      1.01   1.02    0.1 percentile
 3 item_03  0.994      1.01   1.02    0.1 percentile
 4 item_04  0.988      1.00   1.02    0.1 percentile
 5 item_05  0.988      1.00   1.02    0.1 percentile
 6 item_06  1.00       1.02   1.03    0.1 percentile
 7 item_07  1.01       1.02   1.04    0.1 percentile
 8 item_08  0.994      1.01   1.02    0.1 percentile
 9 item_09  1.00       1.02   1.03    0.1 percentile
10 item_10  1.06       1.08   1.10    0.1 percentile
# ℹ 17 more rows
…
...
and 14 more lines.

One helpful function is tidy(). It is designed to return the object results rationally, helpfully. In our case, the tidy() method for an lm object gives us a nice data frame back with information on the fitted coefficients:

tidy(lin_reg_fit)

# A tibble: 114 × 5
   term        estimate std.error statistic  p.value
   <chr>          <dbl>     <dbl>     <dbl>    <dbl>
 1 (Intercept)   13.3      1.58        8.42 4.66e-17
 2 item_01        1.24     0.103      12.1  3.50e-33
 3 item_02        0.646    0.0687      9.41 6.85e-21
 4 item_03        0.731    0.0691     10.6  6.46e-26
 5 item_04        0.282    0.0626      4.50 6.78e- 6
 6 item_05        0.584    0.0787      7.42 1.36e-13
 7 item_06        0.525    0.0720      7.29 3.46e-13
 8 item_07        0.506    0.0710      7.13 1.10e-12
 9 item_08        0.638    0.0672      9.49 3.42e-21
10 item_09        0.737    0.0758      9.72 3.51e-22
# ℹ 104 more rows
…
The benefit here is that there are a lot of helper functions to simplify your code. For example, to get the validation set MAE and predictions:

collect_metrics(lin_reg_res)

# A tibble: 1 × 6
  .metric .estimator  mean     n std_err .config             
  <chr>   <chr>      <dbl> <int>   <dbl> <chr>               
1 mae     standard    1.61     1      NA Preprocessor1_Model1

collect_predictions(lin_reg_res)

# A tibble: 2,004 × 5
   id         .pred  .row time_to_delivery .config             
   <chr>      <dbl> <int>            <dbl> <chr>               
 1 validation  30.1  6005             27.2 Preprocessor1_Model1
 2 validation  23.0  6006             22.1 Preprocessor1_Model1
 3 validation  28.4  6007             26.6 Preprocessor1_Model1
 4 validation  31.0  6008             30.8 Preprocessor1_Model1
 5 validation  38.6  6009             41.2 Preprocessor1_Model1
 6 validation  27.0  6010             27.0 Preprocessor1_Model1
 7 validation  21.6  6011             20.8 Preprocessor1_Model1
 8 validation  18.7  6012             17.0 Preprocessor1_Model1
 9 validation  26.3  6013             25.7 Preprocessor1_Model1
10 validation  19.9  6014             19.5 Preprocessor1_Model1
# ℹ 1,994 more rows
…
We can pull out the elements we need from this object using some extract_*() and collect_*() functions. Here are a few:

# Test set metrics:
collect_metrics(lin_reg_test_res)

# A tibble: 1 × 4
  .metric .estimator .estimate .config             
  <chr>   <chr>          <dbl> <chr>               
1 mae     standard        1.61 Preprocessor1_Model1

# Test set predictions: 
collect_predictions(lin_reg_test_res)

# A tibble: 2,004 × 5
   id               .pred  .row time_to_delivery .config             
   <chr>            <dbl> <int>            <dbl> <chr>               
 1 train/test split  16.0     7             18.0 Preprocessor1_Model1
 2 train/test split  16.0    14             17.6 Preprocessor1_Model1
 3 train/test split  27.6    16             26.7 Preprocessor1_Model1
 4 train/test split  17.2    29             17.6 Preprocessor1_Model1
 5 train/test split  32.2    33             32.2 Preprocessor1_Model1
 6 train/test split  20.2    34             20.3 Preprocessor1_Model1
 7 train/test split  29.2    35             30.5 Preprocessor1_Model1
 8 train/test split  18.8    43             20.6 Preprocessor1_Model1
 9 train/test split  25.5    44             24.9 Preprocessor1_Model1
10 train/test split  22.6    49             22.3 Preprocessor1_Model1
# ℹ 1,994 more rows
…
